// Jest Snapshot v1, https://goo.gl/fbAQLP

exports[`App 1`] = `
<div
  className="App"
>
  <nav
    className="nav-bar navbar navbar-expand-lg navbar-dark"
  >
    <div
      className="container"
    >
      <a
        className="navbar-brand"
        href="/"
      >
        Re-Park-Able
      </a>
      <button
        aria-controls="basic-navbar-nav"
        aria-label="Toggle navigation"
        className="navbar-toggler collapsed"
        onClick={[Function]}
        type="button"
      >
        <span
          className="navbar-toggler-icon"
        />
      </button>
      <div
        aria-expanded={null}
        className="navbar-collapse collapse"
        id="basic-navbar-nav"
      >
        <div
          className="me-auto navbar-nav"
          onKeyDown={[Function]}
        >
          <a
            className="nav-link"
            data-rr-ui-event-key="/"
            disabled={false}
            href="/"
            onClick={[Function]}
          >
            Home
          </a>
          <a
            className="nav-link"
            data-rr-ui-event-key="/about"
            disabled={false}
            href="/about"
            onClick={[Function]}
          >
            About
          </a>
          <a
            className="nav-link"
            data-rr-ui-event-key="/parks"
            disabled={false}
            href="/parks"
            onClick={[Function]}
          >
            Parks
          </a>
          <a
            className="nav-link"
            data-rr-ui-event-key="/trails"
            disabled={false}
            href="/trails"
            onClick={[Function]}
          >
            Trails
          </a>
          <a
            className="nav-link"
            data-rr-ui-event-key="/campgrounds"
            disabled={false}
            href="/campgrounds"
            onClick={[Function]}
          >
            Campgrounds
          </a>
          <a
            className="nav-link"
            data-rr-ui-event-key="/devVisualizations"
            disabled={false}
            href="/devVisualizations"
            onClick={[Function]}
          >
            Developer Visualizations
          </a>
          <a
            className="nav-link"
            data-rr-ui-event-key="/ourVisualizations"
            disabled={false}
            href="/ourVisualizations"
            onClick={[Function]}
          >
            Our Visualizations
          </a>
        </div>
        <form
          className="d-flex pb-2 justify-content-center"
          onSubmit={[Function]}
        >
          <input
            aria-label="Search"
            className="me-2 form-control"
            name="query"
            placeholder="Search site"
            style={
              Object {
                "width": "20vw",
              }
            }
            type="search"
          />
          <button
            className="btn btn-outline-secondary"
            disabled={false}
            style={
              Object {
                "color": "white",
              }
            }
            type="submit"
          >
            Search
          </button>
        </form>
      </div>
    </div>
  </nav>
  <div
    className="vstack"
  >
    <div
      className="App"
      id="root"
    >
      <br />
      <br />
      <h1>
         Re-Park-Able
      </h1>
      <h4>
        Find Remarkable Parks
      </h4>
      <br />
      <img
        src="https://images.pexels.com/photos/1867601/pexels-photo-1867601.jpeg?auto=compress&cs=tinysrgb&w=800"
        width="1000rem"
      />
      <div
        className="p-4 container"
      >
        <br />
        <h4>
          Plan your next adventure in the great outdoors
        </h4>
        <br />
        <div
          className="g-3 row"
        >
          <div
            className="d-flex align-self-stretch col"
          >
            <div
              className="card"
              style={
                Object {
                  "width": "24rem",
                }
              }
            >
              <img
                className="card-img-top"
                src="https://www.nps.gov/npgallery/GetAsset/66F449BA-1399-4855-806B-D405505677FB/proxy/hires/100px180"
              />
              <div
                className="card-body"
              >
                <div
                  className="card-title h5"
                >
                  National Parks
                </div>
                <p
                  className="card-text"
                >
                  Find a beautiful park!
                </p>
              </div>
              <div
                className="card-footer"
              >
                <a
                  href="/parks"
                  onClick={[Function]}
                >
                  <button
                    className="sc-beySbM bbVacn"
                  >
                    Find a Park
                  </button>
                </a>
              </div>
            </div>
          </div>
          <div
            className="col"
          >
            <div
              className="card"
              style={
                Object {
                  "width": "24rem",
                }
              }
            >
              <img
                className="card-img-top"
                src="https://www.nps.gov/common/uploads/grid_builder/trails/crop16_9/2D10594A-EBC6-A14A-5562C2B9EB292E27.jpg?width=465&quality=90&mode=crop/100px180"
              />
              <div
                className="card-body"
              >
                <div
                  className="card-title h5"
                >
                  Hiking Trails
                </div>
                <p
                  className="card-text"
                >
                  Find a hiking trail!
                </p>
              </div>
              <div
                className="card-footer"
              >
                <a
                  href="/trails"
                  onClick={[Function]}
                >
                  <button
                    className="sc-beySbM bbVacn"
                  >
                    Find a Trail
                  </button>
                </a>
              </div>
            </div>
          </div>
          <div
            className="col"
          >
            <div
              className="card"
              style={
                Object {
                  "width": "24rem",
                }
              }
            >
              <img
                className="card-img-top"
                src="https://www.nps.gov/common/uploads/grid_builder/lake/crop16_9/8571C0A0-98B5-5F91-E0FEEB31FF48B678.jpg?width=465&quality=90&mode=crop/100px180"
              />
              <div
                className="card-body"
              >
                <div
                  className="card-title h5"
                >
                  Campgrounds
                </div>
                <p
                  className="card-text"
                >
                  Find a campground!
                </p>
              </div>
              <div
                className="card-footer"
              >
                <a
                  href="/campgrounds"
                  onClick={[Function]}
                >
                  <button
                    className="sc-beySbM bbVacn"
                  >
                    Find a Campground
                  </button>
                </a>
              </div>
            </div>
          </div>
        </div>
      </div>
    </div>
  </div>
</div>
`;
